%YAML 1.1
%TAG !u! tag:unity3d.com,2011:
--- !u!74 &7400000
AnimationClip:
  m_ObjectHideFlags: 0
  m_CorrespondingSourceObject: {fileID: 0}
  m_PrefabInstance: {fileID: 0}
  m_PrefabAsset: {fileID: 0}
  m_Name: Car_right
  serializedVersion: 6
  m_Legacy: 0
  m_Compressed: 0
  m_UseHighQualityCurve: 1
  m_RotationCurves: []
  m_CompressedRotationCurves: []
  m_EulerCurves: []
  m_PositionCurves: []
  m_ScaleCurves: []
  m_FloatCurves: []
  m_PPtrCurves:
  - curve:
    - time: 0
      value: {fileID: 21300000, guid: b85fa0eb8a1c74c7496c9fddddd5b7d9, type: 3}
    - time: 0.033333335
      value: {fileID: 21300000, guid: a525d621bc5694027b6a7975a7aded1a, type: 3}
    - time: 0.06666667
      value: {fileID: 21300000, guid: c766e8c1fcb1545deac00b5dcaf5fd03, type: 3}
    - time: 0.1
      value: {fileID: 21300000, guid: 1136aaf3112ab4b1084e3e1c3478a9a7, type: 3}
    - time: 0.13333334
      value: {fileID: 21300000, guid: e0206e1c0afff4bce889865725eed0ed, type: 3}
    - time: 0.16666667
      value: {fileID: 21300000, guid: ecd43684eb08545c9b6b3bbe945c1cbc, type: 3}
    - time: 0.2
      value: {fileID: 21300000, guid: 77f49603b76174b328d8f3115eb5373a, type: 3}
    attribute: m_Sprite
    path: 
    classID: 212
    script: {fileID: 0}
  m_SampleRate: 30
  m_WrapMode: 0
  m_Bounds:
    m_Center: {x: 0, y: 0, z: 0}
    m_Extent: {x: 0, y: 0, z: 0}
  m_ClipBindingConstant:
    genericBindings:
    - serializedVersion: 2
      path: 0
      attribute: 0
      script: {fileID: 0}
      typeID: 212
      customType: 23
      isPPtrCurve: 1
    pptrCurveMapping:
    - {fileID: 21300000, guid: b85fa0eb8a1c74c7496c9fddddd5b7d9, type: 3}
    - {fileID: 21300000, guid: a525d621bc5694027b6a7975a7aded1a, type: 3}
    - {fileID: 21300000, guid: c766e8c1fcb1545deac00b5dcaf5fd03, type: 3}
    - {fileID: 21300000, guid: 1136aaf3112ab4b1084e3e1c3478a9a7, type: 3}
    - {fileID: 21300000, guid: e0206e1c0afff4bce889865725eed0ed, type: 3}
    - {fileID: 21300000, guid: ecd43684eb08545c9b6b3bbe945c1cbc, type: 3}
    - {fileID: 21300000, guid: 77f49603b76174b328d8f3115eb5373a, type: 3}
  m_AnimationClipSettings:
    serializedVersion: 2
    m_AdditiveReferencePoseClip: {fileID: 0}
    m_AdditiveReferencePoseTime: 0
    m_StartTime: 0
    m_StopTime: 0.23333333
    m_OrientationOffsetY: 0
    m_Level: 0
    m_CycleOffset: 0
    m_HasAdditiveReferencePose: 0
    m_LoopTime: 0
    m_LoopBlend: 0
    m_LoopBlendOrientation: 0
    m_LoopBlendPositionY: 0
    m_LoopBlendPositionXZ: 0
    m_KeepOriginalOrientation: 0
    m_KeepOriginalPositionY: 1
    m_KeepOriginalPositionXZ: 0
    m_HeightFromFeet: 0
    m_Mirror: 0
  m_EditorCurves: []
  m_EulerEditorCurves: []
  m_HasGenericRootTransform: 0
  m_HasMotionFloatCurves: 0
  m_Events: []
