%YAML 1.1
%TAG !u! tag:unity3d.com,2011:
--- !u!1 &6759677615916999196
GameObject:
  m_ObjectHideFlags: 0
  m_CorrespondingSourceObject: {fileID: 5616946022304603147, guid: 6caaf6bbb0b524897b3cbec948a2891a,
    type: 3}
  m_PrefabInstance: {fileID: 7104155098557935673}
  m_PrefabAsset: {fileID: 0}
  serializedVersion: 6
  m_Component:
  - component: {fileID: 6756491857078068268}
  - component: {fileID: 6862654096087024922}
  - component: {fileID: 6654629985691220530}
  - component: {fileID: 6706023806746663034}
  m_Layer: 0
  m_Name: police car
  m_TagString: Enemy Car
  m_Icon: {fileID: 0}
  m_NavMeshLayer: 0
  m_StaticEditorFlags: 0
  m_IsActive: 1
--- !u!4 &6756491857078068268
Transform:
  m_ObjectHideFlags: 0
  m_CorrespondingSourceObject: {fileID: 5620410783831890491, guid: 6caaf6bbb0b524897b3cbec948a2891a,
    type: 3}
  m_PrefabInstance: {fileID: 7104155098557935673}
  m_PrefabAsset: {fileID: 0}
  m_GameObject: {fileID: 6759677615916999196}
  m_LocalRotation: {x: 0, y: 0, z: 1, w: 0}
  m_LocalPosition: {x: -0.83, y: 3.57, z: 0}
  m_LocalScale: {x: 0.7515955, y: 0.8141499, z: 1}
  m_Children: []
  m_Father: {fileID: 0}
  m_RootOrder: 0
  m_LocalEulerAnglesHint: {x: 0, y: 0, z: 180}
--- !u!212 &6862654096087024922
SpriteRenderer:
  m_ObjectHideFlags: 0
  m_CorrespondingSourceObject: {fileID: 5692936776017230605, guid: 6caaf6bbb0b524897b3cbec948a2891a,
    type: 3}
  m_PrefabInstance: {fileID: 7104155098557935673}
  m_PrefabAsset: {fileID: 0}
  m_GameObject: {fileID: 6759677615916999196}
  m_Enabled: 1
  m_CastShadows: 0
  m_ReceiveShadows: 0
  m_DynamicOccludee: 1
  m_MotionVectors: 1
  m_LightProbeUsage: 1
  m_ReflectionProbeUsage: 1
  m_RenderingLayerMask: 4294967295
  m_RendererPriority: 0
  m_Materials:
  - {fileID: 10754, guid: 0000000000000000f000000000000000, type: 0}
  m_StaticBatchInfo:
    firstSubMesh: 0
    subMeshCount: 0
  m_StaticBatchRoot: {fileID: 0}
  m_ProbeAnchor: {fileID: 0}
  m_LightProbeVolumeOverride: {fileID: 0}
  m_ScaleInLightmap: 1
  m_PreserveUVs: 0
  m_IgnoreNormalsForChartDetection: 0
  m_ImportantGI: 0
  m_StitchLightmapSeams: 0
  m_SelectedEditorRenderState: 0
  m_MinimumChartSize: 4
  m_AutoUVMaxDistance: 0.5
  m_AutoUVMaxAngle: 89
  m_LightmapParameters: {fileID: 0}
  m_SortingLayerID: 0
  m_SortingLayer: 0
  m_SortingOrder: 0
  m_Sprite: {fileID: 21300000, guid: 704b87d171446470a8db159d956fd798, type: 3}
  m_Color: {r: 1, g: 1, b: 1, a: 1}
  m_FlipX: 0
  m_FlipY: 0
  m_DrawMode: 0
  m_Size: {x: 2.56, y: 2.56}
  m_AdaptiveModeThreshold: 0.5
  m_SpriteTileMode: 0
  m_WasSpriteAssigned: 1
  m_MaskInteraction: 0
  m_SpriteSortPoint: 0
--- !u!114 &6654629985691220530
MonoBehaviour:
  m_ObjectHideFlags: 0
  m_CorrespondingSourceObject: {fileID: 5504994038613247013, guid: 6caaf6bbb0b524897b3cbec948a2891a,
    type: 3}
  m_PrefabInstance: {fileID: 7104155098557935673}
  m_PrefabAsset: {fileID: 0}
  m_GameObject: {fileID: 6759677615916999196}
  m_Enabled: 1
  m_EditorHideFlags: 0
  m_Script: {fileID: 11500000, guid: 6fac878350aa84ca48c88054d1561dd7, type: 3}
  m_Name: 
  m_EditorClassIdentifier: 
  speed: 5
--- !u!61 &6706023806746663034
BoxCollider2D:
  m_ObjectHideFlags: 0
  m_CorrespondingSourceObject: {fileID: 5561032123782309485, guid: 6caaf6bbb0b524897b3cbec948a2891a,
    type: 3}
  m_PrefabInstance: {fileID: 7104155098557935673}
  m_PrefabAsset: {fileID: 0}
  m_GameObject: {fileID: 6759677615916999196}
  m_Enabled: 1
  m_Density: 1
  m_Material: {fileID: 0}
  m_IsTrigger: 0
  m_UsedByEffector: 0
  m_UsedByComposite: 0
  m_Offset: {x: -0.08483875, y: 0.07831991}
  m_SpriteTilingProperty:
    border: {x: 0, y: 0, z: 0, w: 0}
    pivot: {x: 0.5, y: 0.5}
    oldSize: {x: 2.56, y: 2.56}
    newSize: {x: 2.56, y: 2.56}
    adaptiveTilingThreshold: 0.5
    drawMode: 0
    adaptiveTiling: 0
  m_AutoTiling: 0
  serializedVersion: 2
  m_Size: {x: 0.9480679, y: 2.1683981}
  m_EdgeRadius: 0
--- !u!1001 &7104155098557935673
PrefabInstance:
  m_ObjectHideFlags: 0
  serializedVersion: 2
  m_Modification:
    m_TransformParent: {fileID: 0}
    m_Modifications:
    - target: {fileID: 5616946022304603147, guid: 6caaf6bbb0b524897b3cbec948a2891a,
        type: 3}
      propertyPath: m_Name
      value: police car
      objectReference: {fileID: 0}
    - target: {fileID: 5620410783831890491, guid: 6caaf6bbb0b524897b3cbec948a2891a,
        type: 3}
      propertyPath: m_LocalPosition.x
      value: -0.83
      objectReference: {fileID: 0}
    - target: {fileID: 5620410783831890491, guid: 6caaf6bbb0b524897b3cbec948a2891a,
        type: 3}
      propertyPath: m_LocalPosition.y
      value: 3.57
      objectReference: {fileID: 0}
    - target: {fileID: 5620410783831890491, guid: 6caaf6bbb0b524897b3cbec948a2891a,
        type: 3}
      propertyPath: m_LocalPosition.z
      value: 0
      objectReference: {fileID: 0}
    - target: {fileID: 5620410783831890491, guid: 6caaf6bbb0b524897b3cbec948a2891a,
        type: 3}
      propertyPath: m_LocalRotation.x
      value: 0
      objectReference: {fileID: 0}
    - target: {fileID: 5620410783831890491, guid: 6caaf6bbb0b524897b3cbec948a2891a,
        type: 3}
      propertyPath: m_LocalRotation.y
      value: 0
      objectReference: {fileID: 0}
    - target: {fileID: 5620410783831890491, guid: 6caaf6bbb0b524897b3cbec948a2891a,
        type: 3}
      propertyPath: m_LocalRotation.z
      value: 1
      objectReference: {fileID: 0}
    - target: {fileID: 5620410783831890491, guid: 6caaf6bbb0b524897b3cbec948a2891a,
        type: 3}
      propertyPath: m_LocalRotation.w
      value: 0
      objectReference: {fileID: 0}
    - target: {fileID: 5620410783831890491, guid: 6caaf6bbb0b524897b3cbec948a2891a,
        type: 3}
      propertyPath: m_RootOrder
      value: 7
      objectReference: {fileID: 0}
    - target: {fileID: 5620410783831890491, guid: 6caaf6bbb0b524897b3cbec948a2891a,
        type: 3}
      propertyPath: m_LocalEulerAnglesHint.x
      value: 0
      objectReference: {fileID: 0}
    - target: {fileID: 5620410783831890491, guid: 6caaf6bbb0b524897b3cbec948a2891a,
        type: 3}
      propertyPath: m_LocalEulerAnglesHint.y
      value: 0
      objectReference: {fileID: 0}
    - target: {fileID: 5620410783831890491, guid: 6caaf6bbb0b524897b3cbec948a2891a,
        type: 3}
      propertyPath: m_LocalEulerAnglesHint.z
      value: 180
      objectReference: {fileID: 0}
    m_RemovedComponents: []
  m_SourcePrefab: {fileID: 100100000, guid: 6caaf6bbb0b524897b3cbec948a2891a, type: 3}
